Joins | R para análise de dados
…
Importe o arquivo continents.xlsx e mostre seu conteúdo na tela.

#> # A tibble: 6 x 4
#>   continent  area_km2 population percent_total_pop
#>   <chr>         <dbl>      <dbl>             <dbl>
#> 1 Africa     30370000 1022234000              15  
#> 2 Americas   42330000  934611000              14  
#> 3 Antarctica 13720000       4490               0  
#> 4 Asia       43820000 4164252000              60  
#> 5 Europe     10180000  738199000              11  
#> 6 Oceania     9008500   29127000               0.4

Faça um join entre a tabela gapminder e continents, onde gapminder será a tabela de referência. Salve essa operação em um objeto chamado gap_cont.

#> # A tibble: 1,704 x 9
#>    country continent  year lifeExp    pop gdpPercap area_km2 population
#>    <fct>   <chr>     <int>   <dbl>  <int>     <dbl>    <dbl>      <dbl>
#>  1 Afghan~ Asia       1952    28.8 8.43e6      779. 43820000 4164252000
#>  2 Afghan~ Asia       1957    30.3 9.24e6      821. 43820000 4164252000
#>  3 Afghan~ Asia       1962    32.0 1.03e7      853. 43820000 4164252000
#>  4 Afghan~ Asia       1967    34.0 1.15e7      836. 43820000 4164252000
#>  5 Afghan~ Asia       1972    36.1 1.31e7      740. 43820000 4164252000
#>  6 Afghan~ Asia       1977    38.4 1.49e7      786. 43820000 4164252000
#>  7 Afghan~ Asia       1982    39.9 1.29e7      978. 43820000 4164252000
#>  8 Afghan~ Asia       1987    40.8 1.39e7      852. 43820000 4164252000
#>  9 Afghan~ Asia       1992    41.7 1.63e7      649. 43820000 4164252000
#> 10 Afghan~ Asia       1997    41.8 2.22e7      635. 43820000 4164252000
#> # ... with 1,694 more rows, and 1 more variable: percent_total_pop <dbl>

Com base no objeto gap_cont, filtre as informações do continente Antarctica.

#> # A tibble: 24 x 9
#>    country continent  year lifeExp    pop gdpPercap area_km2 population
#>    <fct>   <chr>     <int>   <dbl>  <int>     <dbl>    <dbl>      <dbl>
#>  1 Austra~ Oceania    1952    69.1 8.69e6    10040.  9008500   29127000
#>  2 Austra~ Oceania    1957    70.3 9.71e6    10950.  9008500   29127000
#>  3 Austra~ Oceania    1962    70.9 1.08e7    12217.  9008500   29127000
#>  4 Austra~ Oceania    1967    71.1 1.19e7    14526.  9008500   29127000
#>  5 Austra~ Oceania    1972    71.9 1.32e7    16789.  9008500   29127000
#>  6 Austra~ Oceania    1977    73.5 1.41e7    18334.  9008500   29127000
#>  7 Austra~ Oceania    1982    74.7 1.52e7    19477.  9008500   29127000
#>  8 Austra~ Oceania    1987    76.3 1.63e7    21889.  9008500   29127000
#>  9 Austra~ Oceania    1992    77.6 1.75e7    23425.  9008500   29127000
#> 10 Austra~ Oceania    1997    78.8 1.86e7    26998.  9008500   29127000
#> # ... with 14 more rows, and 1 more variable: percent_total_pop <dbl>
…
